joeysvowels: An R package of vowel data – Joey Stanley
…
Cleaner datasets: coronals and its subsets

coronals is a much cleaner, more controlled dataset. You can read about the methods by viewing the documentation (?coronals). Essentially, I read a bunch of (C)CVC(C) nonce words where the consonants were (almost) all coronal. All my vowel phonemes are represented. I aligned and extracted formants from the data myself. Four formants were extracted every 5% of the vowels’ durations, so great for demonstrating functions and visuals involving vowel trajectories.

data(coronals)
avg_trajs <- coronals %>%
  group_by(vowel, percent) %>%
  summarize(across(c(F1, F2), mean)) %>%
  print()

# A tibble: 273 × 4
# Groups:   vowel [13]
   vowel percent    F1    F2
   <fct>   <dbl> <dbl> <dbl>
 1 LOT         0  454. 1616.
 2 LOT         5  592. 1346.
 3 LOT        10  648. 1283.
 4 LOT        15  651. 1238.
 5 LOT        20  661. 1178.
 6 LOT        25  651. 1176.
 7 LOT        30  636. 1152.
 8 LOT        35  630. 1148.
 9 LOT        40  633. 1153.
10 LOT        45  625. 1158.
# ℹ 263 more rows
…
