Simulating Candyland – Joey Stanley
…
If you’re not interested in how I did the simulation and just want to see the results, just jump to Section 3.

1 The simulation

1.1 Setting up the game

The first step in simulating Candyland is to set up the board. There’s no real easy way to do that, so I just went through and hard-coded the tiles and colors. I’ve got a simple dataframe with a column for the tile number, the color of the tile, and if there’s anything special about it. In my original spreadsheet, if there was nothing special about the tile, I left it blank, but because of issues with NAs down the road, I’ve replaced those blank cells with "none". Here’s what that looks like:

library(tidyverse)
board <- read_csv("candyland_data.csv", show_col_types = FALSE) |> 
  mutate(special = replace_na(special, "none")) |> 
  print()

# A tibble: 132 × 3
    tile color  special              
   <dbl> <chr>  <chr>                
 1     1 red    none                 
 2     2 purple none                 
 3     3 yellow none                 
 4     4 blue   peppermint pass start
 5     5 orange none                 
 6     6 green  none                 
 7     7 red    none                 
 8     8 purple none                 
 9     9 pink   cupcake              
10    10 yellow none                 
# ℹ 122 more rows
…
  # End the game
  if (i >= (n_cards*2)) {
    keep_playing <- FALSE
  } else {
    i <- i + 1
  }
  
}
turns

# A tibble: 134 × 5
   turn_num start card          shortcut end  
      <int> <dbl> <chr>         <lgl>    <lgl>
 1        1     0 single red    NA       NA   
 2        2    NA double orange NA       NA   
 3        3    NA double red    NA       NA   
 4        4    NA lollipop      NA       NA   
 5        5    NA double purple NA       NA   
 6        6    NA single green  NA       NA   
 7        7    NA double green  NA       NA   
 8        8    NA double orange NA       NA   
 9        9    NA single yellow NA       NA   
10       10    NA single yellow NA       NA   
# ℹ 124 more rows
…
  # End the game
  if (i >= (n_cards*2)) {
    keep_playing <- FALSE
  } else {
    i <- i + 1
  }
  
}
turns

# A tibble: 134 × 5
   turn_num start card           shortcut   end
      <int> <dbl> <chr>          <lgl>    <dbl>
 1        1     0 double yellow  NA          NA
 2        2    NA double red     NA          NA
 3        3    NA ice cream cone NA          20
 4        4    NA single yellow  NA          NA
 5        5    NA double yellow  NA          NA
 6        6    NA double purple  NA          NA
 7        7    NA single green   NA          NA
 8        8    NA single red     NA          NA
 9        9    NA single orange  NA          NA
10       10    NA double yellow  NA          NA
# ℹ 124 more rows
…
  # If it's a candy card, go straight there.
  if (turns$card[[i]] %in% candy_cards) {
    turns$end[[i]] <- board[board$special == turns$card[[i]],]$tile
  }

  if (i >= (n_cards*2)) {
    keep_playing <- FALSE
  } else {
    i <- i + 1
  }
  
}
turns

# A tibble: 134 × 5
   turn_num start card              shortcut   end
      <int> <dbl> <chr>             <lgl>    <dbl>
 1        1     0 double green      NA          NA
 2        2    NA double red        NA          NA
 3        3    NA double orange     NA          NA
 4        4    NA chocolate truffle NA         117
 5        5   117 double green      NA          NA
 6        6    NA double green      NA          NA
 7        7    NA single green      NA          NA
 8        8    NA gingerbread man   NA          69
 9        9    69 single green      NA          NA
10       10    NA single yellow     NA          NA
# ℹ 124 more rows
…
  # run out of cards
  if (i >= c(n_cards*2)) {
    keep_playing <- FALSE
  # win
  } else if (turns$end[[i]] >= max(board$tile)) {
    keep_playing <- FALSE
  } else {
    i <- i + 1
  }
  
}
turns

# A tibble: 134 × 5
   turn_num start card          shortcut   end
      <int> <dbl> <chr>         <lgl>    <dbl>
 1        1     0 single orange NA           5
 2        2     5 double yellow NA          16
 3        3    16 single green  NA          19
 4        4    19 double green  NA          32
 5        5    32 double yellow NA          41
 6        6    41 single green  NA          45
 7        7    45 single blue   NA          49
 8        8    49 double green  NA          57
 9        9    57 single blue   NA          61
10       10    61 single green  NA          63
# ℹ 124 more rows
…
  # run out of cards
  if (i >= c(n_cards*2)) {
    keep_playing <- FALSE
  # win
  } else if (turns$end[[i]] >= max(board$tile)) {
    keep_playing <- FALSE
  } else {
    i <- i + 1
  }
  
}
turns

# A tibble: 134 × 5
   turn_num start card          shortcut   end
      <int> <dbl> <chr>         <lgl>    <dbl>
 1        1     0 double orange NA          12
 2        2    12 double yellow NA          23
 3        3    23 single yellow NA          29
 4        4    29 single green  NA          32
 5        5    32 gummy star    NA          42
 6        6    42 single yellow NA          48
 7        7    48 single red    NA          52
 8        8    52 single yellow NA          54
 9        9    54 single purple NA          59
10       10    59 double green  NA          70
# ℹ 124 more rows
…
  turns %>%
    filter(turn_num <= i) %>%
    return()
}
simulate_game()

# A tibble: 42 × 5
   turn_num start card          shortcut   end
      <int> <dbl> <chr>         <lgl>    <dbl>
 1        1     0 double red    NA           7
 2        2     7 double purple NA          15
 3        3    15 double green  NA          26
 4        4    26 single purple NA          28
 5        5    28 double yellow NA          35
 6        6    35 double blue   NA          43
 7        7    43 double yellow NA          54
 8        8    54 single red    NA          58
 9        9    58 single red    NA          64
10       10    64 single blue   NA          67
# ℹ 32 more rows
…
Time difference of 1.639684 mins

Hooray! We now have a function that simulates an entire game of Candyland, and with just a few additional lines of code and a little bit of patience, we were able to run that simulation thousands of times. Let’s take a look at the output, just to see what we’re working with:

games

# A tibble: 224,150 × 6
   game_num turn_num start card          shortcut   end
      <int>    <int> <dbl> <chr>         <chr>    <dbl>
 1        1        1     0 single purple <NA>         2
 2        1        2     2 double orange <NA>        12
 3        1        3    12 single blue   <NA>        17
 4        1        4    17 single yellow <NA>        23
 5        1        5    23 single green  <NA>        26
 6        1        6    26 double red    <NA>        33
 7        1        7    33 single red    <NA>        39
 8        1        8    39 single yellow <NA>        41
 9        1        9    41 double green  <NA>        51
10        1       10    51 double orange <NA>        62
# ℹ 224,140 more rows
…
3 Results

So, now that we have the simulation done, let’s take a look at the results! First, I’ll take the giant games object and summarize it. I don’t necessarily need to keep information about every single turn, but I can start to count some things that we can think about analyzing later. For now, Ill count the number of turns, candies, singles, doubles, and shortcuts, and I’ll do so by game.

games_summary <- games %>%
  summarize(turns = max(turn_num),
            n_candies = sum(card %in% candy_cards),
            n_singles = sum(str_detect(card, "single")),
            n_doubles = sum(str_detect(card, "double")),
            n_shortcuts = sum(!is.na(shortcut)),
            .by = game_num) |> 
  print()

# A tibble: 10,000 × 6
   game_num turns n_candies n_singles n_doubles n_shortcuts
      <int> <int>     <int>     <int>     <int>       <int>
 1        1    20         0        10        10           0
 2        2    16         4         8         4           0
 3        3    25         2        16         7           1
 4        4     7         1         5         1           0
 5        5    23         0        16         7           1
 6        6    29         4        18         7           0
 7        7    13         1         8         4           0
 8        8    18         1        11         6           0
 9        9    27         2        15        10           0
10       10    17         3         9         5           0
# ℹ 9,990 more rows
…
set.seed(250320)
games_triple <- tibble(game_num = 1:10000) |>
  mutate(game = map(game_num, simulate_game_with_triples)) |>
  unnest(cols = c(game))
games_triple_summary <- games_triple %>%
  summarize(turns = max(turn_num),
            n_candies = sum(card %in% candy_cards),
            n_singles = sum(str_detect(card, "single")),
            n_doubles = sum(str_detect(card, "double")),
            n_triples = sum(str_detect(card, "triple")),
            n_shortcuts = sum(!is.na(shortcut)),
            .by = game_num) |> 
  print()

# A tibble: 10,000 × 7
   game_num turns n_candies n_singles n_doubles n_triples n_shortcuts
      <int> <int>     <int>     <int>     <int>     <int>       <int>
 1        1    30         1        17         9         3           1
 2        2    16         3         6         4         3           0
 3        3     7         1         2         4         0           0
 4        4    24         1        12        10         1           0
 5        5    16         1         6         7         2           0
 6        6    18         0         8         8         2           0
 7        7    25         1        13        11         0           0
 8        8    13         2         7         3         1           0
 9        9    22         1        10         9         2           0
10       10    18         2        10         4         2           0
# ℹ 9,990 more rows
…
Now, let’s actually run the 10,000 simulated games.

set.seed(250320)
games_without_candies <- tibble(game_num = 1:10000) |>
  mutate(game = map(game_num, simulate_game_without_candies)) |>
  unnest(cols = c(game))
games_without_candies_summary <- games_without_candies %>%
  summarize(turns = max(turn_num),
            n_singles = sum(str_detect(card, "single")),
            n_doubles = sum(str_detect(card, "double")),
            n_shortcuts = sum(!is.na(shortcut)),
            .by = game_num) |> 
  print()

# A tibble: 10,000 × 5
   game_num turns n_singles n_doubles n_shortcuts
      <int> <int>     <int>     <int>       <int>
 1        1    23        13        10           0
 2        2    24        18         6           1
 3        3    24        15         9           0
 4        4    26        17         9           0
 5        5    25        17         8           0
 6        6    13         8         5           1
 7        7    28        18        10           0
 8        8    22        15         7           1
 9        9    18         7        11           0
10       10    10         4         6           1
# ℹ 9,990 more rows
…
