Vowel overlap in R: More advanced topics – Joey Stanley
…
When you run the pillai and bhatt functions, the results is a table such that each combination of speaker and vowel pair are on their own unique row.

pillai_table <- fake_data %>%
    group_by(fake_speaker, vowel_pair) %>%
    summarize(pillai = pillai2(F1, F2, vowel))
pillai_table

# A tibble: 24 × 3
# Groups:   fake_speaker [8]
   fake_speaker vowel_pair pillai
   <chr>        <chr>       <dbl>
 1 Andy         fail fell   0.805
 2 Andy         low back    0.265
 3 Andy         pin pen     0.712
 4 Betty        fail fell   0.883
 5 Betty        low back    0.188
 6 Betty        pin pen     0.622
 7 Chuck        fail fell   0.828
 8 Chuck        low back    0.236
 9 Chuck        pin pen     0.645
10 Dolly        fail fell   0.801
# ℹ 14 more rows
…
Because I’ve randomly split by data up, there’s really no pattern, but if you suspect a correlation between mergers in your dataset, this plot might be more informative for you.

Another plot you may want to see is the correlation between the Pillai score and the Bhattacharyya’s Affinity. We’ll calculate both of them at once and create an overlap_table object.

overlap_table <- fake_data %>%
    group_by(fake_speaker, vowel_pair) %>%
    summarize(pillai = pillai2(F1, F2, vowel),
              bhatt  = bhatt(F1, F2, vowel))
overlap_table

# A tibble: 24 × 4
# Groups:   fake_speaker [8]
   fake_speaker vowel_pair pillai  bhatt
   <chr>        <chr>       <dbl>  <dbl>
 1 Andy         fail fell   0.805 0.118 
 2 Andy         low back    0.265 0.802 
 3 Andy         pin pen     0.712 0.389 
 4 Betty        fail fell   0.883 0.0817
 5 Betty        low back    0.188 0.831 
 6 Betty        pin pen     0.622 0.385 
 7 Chuck        fail fell   0.828 0.119 
 8 Chuck        low back    0.236 0.827 
 9 Chuck        pin pen     0.645 0.424 
10 Dolly        fail fell   0.801 0.128 
# ℹ 14 more rows
…
