Joey Stanleyassistant professor, linguistics - Simulating Chutes and Ladders
…
Now, I’ll read in information about the chutes and ladders themselves, as in where they start and where they stop.

chutes_and_ladders_data <- readxl::read_excel("chutes_ladders_data.xlsx", sheet = 2) %>%
  rowid_to_column("id") %>%
  gather(position, tile, start, end) %>%
  left_join(tile_data, by = "tile")
chutes_and_ladders_data

# A tibble: 38 × 6
      id type   position  tile     x     y
   <int> <chr>  <chr>    <dbl> <dbl> <dbl>
 1     1 ladder start        1     1     1
 2     2 ladder start        4     4     1
 3     3 ladder start        9     9     1
 4     4 ladder start       21     1     3
 5     5 ladder start       28     8     3
 6     6 ladder start       36     5     4
 7     7 ladder start       51    10     6
 8     8 ladder start       71    10     8
 9     9 ladder start       80     1     8
10    10 chute  start       16     5     2
# ℹ 28 more rows
…
  turns %>%
    filter(turn_num <= i) %>%
    return()
}

Now let’s see it in action!

simulate_game()

# A tibble: 21 × 6
   turn_num start  roll  land chute_or_ladder   end
      <int> <dbl> <int> <dbl> <chr>           <dbl>
 1        1     0     2     2 <NA>                2
 2        2     2     6     8 <NA>                8
 3        3     8     6    14 <NA>               14
 4        4    14     2    16 ladder              6
 5        5     6     1     7 <NA>                7
 6        6     7     5    12 <NA>               12
 7        7    12     5    17 <NA>               17
 8        8    17     1    18 <NA>               18
 9        9    18     1    19 <NA>               19
10       10    19     6    25 <NA>               25
# ℹ 11 more rows
Hooray! A complete game. This one appears to have been completed in just 15 moves after hitting four chutes and one ladder.

Simulating lots of games

Okay, so I’ve got the code for simulating a game of Chutes and Ladders and in the example above, I finished a game in just 15 moves. Is that average or did I finish a bit sooner than normal?

To answer this question, I’ll just run the simulate_game function a whole bunch of times and then see if I can see some generalizations. I’ll accomplish this with map from the purrr package.

set.seed(201006)
games <- tibble(game_num = 1:1000) %>%
  mutate(game = map(game_num, simulate_game)) %>%
  unnest(col = game)
games

# A tibble: 36,003 × 7
   game_num turn_num start  roll  land chute_or_ladder   end
      <int>    <int> <dbl> <int> <dbl> <chr>           <dbl>
 1        1        1     0     2     2 <NA>                2
 2        1        2     2     3     5 <NA>                5
 3        1        3     5     1     6 <NA>                6
 4        1        4     6     4    10 <NA>               10
 5        1        5    10     4    14 <NA>               14
 6        1        6    14     5    19 <NA>               19
 7        1        7    19     3    22 <NA>               22
 8        1        8    22     1    23 <NA>               23
 9        1        9    23     3    26 <NA>               26
10        1       10    26     1    27 <NA>               27
# ℹ 35,993 more rows

This games object now contains the data for 1000 games of Chutes and Ladders. It’s nothing more than a bunch of outputs from the simulate_game function all combined into one mega dataframe. It’s got about 36K rows in it, so there’s a lot of information. We can now take this and get some summarized information about each of the games. With summarize I have reduced this down into just one row per game, with information about how many turns the game took, as well as how many chutes and ladders I went through.

games_summary <- games %>%
  group_by(game_num) %>%
  summarize(turns = max(turn_num),
            n_chutes  = sum(chute_or_ladder == "chute", na.rm = TRUE),
            n_ladders = sum(chute_or_ladder == "ladder", na.rm = TRUE))
games_summary

# A tibble: 1,000 × 4
   game_num turns n_chutes n_ladders
      <int> <int>    <int>     <int>
 1        1   114        4        14
 2        2    18        2         0
 3        3    28        3         2
 4        4    16        1         1
 5        5    17        4         1
 6        6    54        4         5
 7        7    23        3         2
 8        8    16        2         1
 9        9    48        4         5
10       10    52        7         7
# ℹ 990 more rows
…
Now I’ll combine all this game data.

modified_games <- bind_rows(list(original = games,
                                 `w/o longest ladder`  = games_without_longest_ladder,
                                 `w/o longest chute`   = games_without_longest_chute),
                            .id = "modification") %>%
  group_by(modification, game_num) %>%
  summarize(turns = max(turn_num),
            n_chutes  = sum(chute_or_ladder == "chute", na.rm = TRUE),
            n_ladders = sum(chute_or_ladder == "ladder", na.rm = TRUE),
            .groups = "drop_last")
modified_games

# A tibble: 3,000 × 5
# Groups:   modification [3]
   modification game_num turns n_chutes n_ladders
   <chr>           <int> <int>    <int>     <int>
 1 original            1   114        4        14
 2 original            2    18        2         0
 3 original            3    28        3         2
 4 original            4    16        1         1
 5 original            5    17        4         1
 6 original            6    54        4         5
 7 original            7    23        3         2
 8 original            8    16        2         1
 9 original            9    48        4         5
10 original           10    52        7         7
# ℹ 2,990 more rows
…
