Joey Stanley - Making vowel plots in R (Part 2)
…
.
Also, you can also use the time (the t column) as the unique id instead of creating new ones, but I like creating sequential numbers better.

my_vowels <- my_vowels_raw %>%
  filter(stress == 1, 
         vowel != "ER") %>%
  mutate(word = tolower(word)) %>%
  rowid_to_column("id") %>%
  select(id, vowel, word, `F1@20%`:`F2@80%`) %>%
  print()

# A tibble: 544 × 13
      id vowel word       `F1@20%` `F2@20%` `F1@35%` `F2@35%` `F1@50%` `F2@50%`
   <int> <chr> <chr>         <dbl>    <dbl>    <dbl>    <dbl>    <dbl>    <dbl>
 1     1 AW    without        483     1518.     594.    1392.     605.    1210 
 2     2 AA    todd           775.    1337.     740.    1162.     615.    1065.
 3     3 AE    last           638.    1513.     643.    1445      614.    1005.
 4     4 EY    places         391     1664.     391     1664.     363.    1810.
 5     5 EH    guest          468.    1719.     473.    1712.     533     1614.
 6     6 IY    sleeping       301.    1596.     262.    2216.     254.    2336.
 7     7 EH    collectors     512     1317      512     1317      530.    1378.
 8     8 EY    snakes         372.    1856.     469.    1829.     409.    1609.
 9     9 IY    feeds         1388.    2206.     257.    2035.     253.    1896.
10    10 IH    trigger        347.    1602.     348.    1607.     353.    1690.
# ℹ 534 more rows
# ℹ 4 more variables: `F1@65%` <dbl>, `F2@65%` <dbl>, `F1@80%` <dbl>,
#   `F2@80%` <dbl>
…
Okay, so we’ve got some data. Let’s figure out how we can plot these as trajectories.

F1-F2 Trajectory Plot

The first plot that I want to show how to do is similar to the ones we’ve done before in the F1-F2 vowel space. But the only difference is that instead of dots we draw lines showing the paths of each vowel. To do that, we need to wrangle with the data a little bit, and then learn how to draw lines using ggplot.

Data processing

For now, let’s just focus on one vowel, my /aɪ/ vowel, since there is some trajectory there.

ay <- my_vowels %>%
  filter(vowel == "AY") %>%
  print()

# A tibble: 52 × 13
      id vowel word     `F1@20%` `F2@20%` `F1@35%` `F2@35%` `F1@50%` `F2@50%`
   <int> <chr> <chr>       <dbl>    <dbl>    <dbl>    <dbl>    <dbl>    <dbl>
 1    15 AY    flight       524.    1109.     535.    1174      511.    1355.
 2    29 AY    insiders     894.    1662.     730.    1526.     514.    1389 
 3    31 AY    sites        608.    1498.     442.    1366.     498.    1498.
 4    36 AY    likely       532.    1120.     576.    1260.     548.    1466.
 5    40 AY    like         443.     978.     579.    1424.     517     1697.
 6    58 AY    like         526.    1363.     526.    1487.     484.    1702.
 7    67 AY    hydrogen     693.    1538.     704.    1568.     492.    1776.
 8    79 AY    right        447.    1117.     538.    1253.     466.    1555.
 9    82 AY    michael      214.    1007.     378.     977.     682.    1224.
10    87 AY    right        432.     970.     566.    1169.     653.    1439.
# ℹ 42 more rows
# ℹ 4 more variables: `F1@65%` <dbl>, `F2@65%` <dbl>, `F1@80%` <dbl>,
#   `F2@80%` <dbl>
…
They key to this is to use the pivot_longer function from the tidyr library. This function—it’s like black magic, I swear—takes multiple columns and condenses them down into just two. This function has two required arguments:

The first argument of pivot_longer is cols, which is what columns you would like to condense down. By default, it does all of them, but we want to keep the vowel, word, and t columns. You could type F1@20%, F2@20%, F1@35%, F2@35%, F1@50%, F2@50%, F1@65%, F2@65%, F1@80%, F2@80%, but that’s a lot. Instead, I’ll just use the shortcut starts_with from dplyr. Since all those columns start with "F", this works out well.

The second argument of gather is names_to, which is the arbitrary name of a new column that will contain the various column names you’ll be condensing down. Since the names of columns we want to gather are F1@50%, F2@50%, etc. I’ll call this new column formant_percent since it will have information about what formant at what percent into the vowel’s duration we’re on.

The third argument is values_to, which is the name of a new column that you want to create that will contain all the values in the columns you want to combine together. Since all the cells in the F1@50%, F2@50%, etc. columns currently have formant measurements in Hertz, I like to call this column hz.

So the code ends up looking like this:

ay %>%
  pivot_longer(cols = starts_with("F"), names_to = "formant_percent", values_to = "hz")

# A tibble: 520 × 5
      id vowel word   formant_percent    hz
   <int> <chr> <chr>  <chr>           <dbl>
 1    15 AY    flight F1@20%           524.
 2    15 AY    flight F2@20%          1109.
 3    15 AY    flight F1@35%           535.
 4    15 AY    flight F2@35%          1174 
 5    15 AY    flight F1@50%           511.
 6    15 AY    flight F2@50%          1355.
 7    15 AY    flight F1@65%           444.
 8    15 AY    flight F2@65%          1550.
 9    15 AY    flight F1@80%           386.
10    15 AY    flight F2@80%          1655.
# ℹ 510 more rows

Okay, so even though there are just 52 tokens of /aɪ/, now we have 520 rows in our dataframe. That’s because each vowel is now spread across ten rows, one for each of the ten formant measurements. It might not be clear right now that that’s what it did, but we can sort the data by ID and you can get a better picture:

ay %>%
  pivot_longer(cols = starts_with("F"), names_to = "formant_percent", values_to = "hz") %>%
  arrange(id)

# A tibble: 520 × 5
      id vowel word   formant_percent    hz
   <int> <chr> <chr>  <chr>           <dbl>
 1    15 AY    flight F1@20%           524.
 2    15 AY    flight F2@20%          1109.
 3    15 AY    flight F1@35%           535.
 4    15 AY    flight F2@35%          1174 
 5    15 AY    flight F1@50%           511.
 6    15 AY    flight F2@50%          1355.
 7    15 AY    flight F1@65%           444.
 8    15 AY    flight F2@65%          1550.
 9    15 AY    flight F1@80%           386.
10    15 AY    flight F2@80%          1655.
# ℹ 510 more rows

There we go. Now it’s clearer that the ten formant measurements from this one word are now spread out in ten rows instead of the original ten columns.

So, this is closer to what we wanted, but we actually squished it a little too much! We actually want F1 and F2 to be in separate columns, and right now they’re all in one.

This is a more transparent, but more cumbersome method. Again, see this blog post for instructions on how to reduce these three lines into one.

So one way to do this is to split up the formant_percent column into two: formant and percent. It’s strange to have two pieces of information (what formant and the timepoint) in one column. We can use the separate_wider_delim function for this. As its first argument, we’ll tell it what column we want to separate (here, it’s formant_percent). Then, we’ll tell is where to split it, which is at the “@” symbol. Then, we’ll add the names argument, which is just a list of new, arbitrary column names that the split data will now be in, which for us is "formant" and “percent".

ay %>%
  pivot_longer(cols = starts_with("F"), names_to = "formant_percent", values_to = "hz") %>%
  separate_wider_delim(formant_percent, delim = "@", names = c("formant", "percent"))

# A tibble: 520 × 6
      id vowel word   formant percent    hz
   <int> <chr> <chr>  <chr>   <chr>   <dbl>
 1    15 AY    flight F1      20%      524.
 2    15 AY    flight F2      20%     1109.
 3    15 AY    flight F1      35%      535.
 4    15 AY    flight F2      35%     1174 
 5    15 AY    flight F1      50%      511.
 6    15 AY    flight F2      50%     1355.
 7    15 AY    flight F1      65%      444.
 8    15 AY    flight F2      65%     1550.
 9    15 AY    flight F1      80%      386.
10    15 AY    flight F2      80%     1655.
# ℹ 510 more rows

That worked pretty well! However, we’ll need to trim off the extra “%” symbol at the end of the new percent column, which we can do using str_remove.

ay %>%
  pivot_longer(cols = starts_with("F"), names_to = "formant_percent", values_to = "hz") %>%
  separate_wider_delim(formant_percent, delim = "@", names = c("formant", "percent")) %>%
  mutate(percent = str_remove(percent, "%"))

# A tibble: 520 × 6
      id vowel word   formant percent    hz
   <int> <chr> <chr>  <chr>   <chr>   <dbl>
 1    15 AY    flight F1      20       524.
 2    15 AY    flight F2      20      1109.
 3    15 AY    flight F1      35       535.
 4    15 AY    flight F2      35      1174 
 5    15 AY    flight F1      50       511.
 6    15 AY    flight F2      50      1355.
 7    15 AY    flight F1      65       444.
 8    15 AY    flight F2      65      1550.
 9    15 AY    flight F1      80       386.
10    15 AY    flight F2      80      1655.
# ℹ 510 more rows

Okay, so now we have one column saying what formant the measurement is for, and another column saying the timepoint. We need to reverse the squish a little bit, and put the formants into two columns. So the opposite of pivot_longer is pivot_wider, and as arguments, you first tell it what column contains the text that will serve as the column names, and then what column contains the numbers you want to be in the cells of those new columns.

ay %>%
  pivot_longer(cols = starts_with("F"), names_to = "formant_percent", values_to = "hz") %>%
  separate_wider_delim(formant_percent, delim = "@", names = c("formant", "percent")) %>%
  mutate(percent = str_remove(percent, "%")) %>%
  pivot_wider(names_from = formant, values_from = hz)

# A tibble: 260 × 6
      id vowel word     percent    F1    F2
   <int> <chr> <chr>    <chr>   <dbl> <dbl>
 1    15 AY    flight   20       524. 1109.
 2    15 AY    flight   35       535. 1174 
 3    15 AY    flight   50       511. 1355.
 4    15 AY    flight   65       444. 1550.
 5    15 AY    flight   80       386. 1655.
 6    29 AY    insiders 20       894. 1662.
 7    29 AY    insiders 35       730. 1526.
 8    29 AY    insiders 50       514. 1389 
 9    29 AY    insiders 65       553. 1538 
10    29 AY    insiders 80       514. 1484.
# ℹ 250 more rows
…
Note that now we have a column we didn’t have before, vowel, which shows the group variable. Now we have the dataset we want: the average formant measurements at each time point for all 14 vowels. Let’s save this as a new dataframe.

my_vowel_means <- my_vowels %>%
  summarize(across(starts_with("F"), mean, na.rm = TRUE), .by = vowel)

Okay, so we have this dataset. It’s essentially the parallel to my_vowels, only instead of individual tokens it has the averages. But, remember that we need to turn the data into a tall format for it to plot the way we want? So, we have to take this my_vowel_means data and turn it tall. Fortunately, you can copy and paste the code we used before:

my_vowel_means_tall <- my_vowel_means %>%
  pivot_longer(cols = starts_with("F"), names_to = "formant_percent", values_to = "hz") %>%
  separate_wider_delim(formant_percent, delim = "@", names = c("formant", "percent")) %>%
  mutate(percent = str_remove(percent, "%")) %>%
  pivot_wider(names_from = formant, values_from = hz) %>%
  print()

# A tibble: 70 × 4
   vowel percent    F1    F2
   <chr> <chr>   <dbl> <dbl>
 1 AW    20       532. 1340.
 2 AW    35       598. 1249.
 3 AW    50       602. 1171.
 4 AW    65       534. 1144.
 5 AW    80       444. 1183.
 6 AA    20       568. 1235.
 7 AA    35       610. 1142.
 8 AA    50       640. 1143.
 9 AA    65       657. 1168.
10 AA    80       636. 1228.
# ℹ 60 more rows
…
Just like we did above, we’ll start with plotting all tokens of /aɪ/, which is going to be a bit messy. Then we’ll see how to summarize the data and plot just the medians for each vowel.

So last time, we took my_vowels and compressed the 10 columns into 1, but that was too far so we used pivot_wider to spread them out into F1 and F2 columns. Well, as it turns out, to make this Praat-like plot, we want that super tall, compressed version.

All of this code you’ve seen before, so it should be relatively clear what is happening. We’ll start with the first dataset, my_vowel, only keep the tokens of “AY”, then we’ll smush all ten columns into one, separate out the formant and percent, and then sort it by the ID. We’ll save this as a new dataframe, ay_very_tall, because it’s a “very tall” version of the data.

ay_very_tall <- my_vowels %>%
  filter(vowel == "AY") %>% 
  pivot_longer(cols = starts_with("F"), names_to = "formant_percent", values_to = "hz") %>%
  separate_wider_delim(formant_percent, delim = "@", names = c("formant", "percent")) %>%
  mutate(percent = str_remove(percent, "%")) %>%
  arrange(id) %>%
  print()

# A tibble: 520 × 6
      id vowel word   formant percent    hz
   <int> <chr> <chr>  <chr>   <chr>   <dbl>
 1    15 AY    flight F1      20       524.
 2    15 AY    flight F2      20      1109.
 3    15 AY    flight F1      35       535.
 4    15 AY    flight F2      35      1174 
 5    15 AY    flight F1      50       511.
 6    15 AY    flight F2      50      1355.
 7    15 AY    flight F1      65       444.
 8    15 AY    flight F2      65      1550.
 9    15 AY    flight F1      80       386.
10    15 AY    flight F2      80      1655.
# ℹ 510 more rows
…
Ah, crud. What happened? As it turns out, we’re plotting one line for each token because the group variable is based on the id column, which has a unique value per token. That’s not actually what we want though, is it? When we did the F1-F2 plot, we wanted a single line per token, sure, but in this plot, we actually want two lines per token, the F1 and the F2. In order for ggplot to draw separate lines, you’re going to need a column that has a unique value for every line you want to draw. So we want a different line for each formant for each token. In other words, we need to create what I like to think of as a “formant id” column. (And yes, that means just a little bit more data wrangling.)

The way I like to do this is to use the unite function, which simply concatenates the values in multiple columns for each row. Since each token has its own id already, the id column, we can combine this with the formant in the formant column. To use unite, you first type the name of the new column you want to create (I did formant_id), then whatever columns you want to combine. By default, they will concatenate without any intervening material, but I like underscores, so I add sep = "_" to put an underscore between them. Also, by default, it’ll remove the contributing columns. We don’t really need the token id column anymore, but I like to keep the formant column so I can color the lines by formant, so we’ll add remove = FALSE to unite. Tag all this on to the end of the list of functions and you get the following block of code.

ay_very_tall <- my_vowels %>%
  filter(vowel == "AY") %>% 
  pivot_longer(cols = starts_with("F"), names_to = "formant_percent", values_to = "hz") %>%
  separate_wider_delim(formant_percent, delim = "@", names = c("formant", "percent")) %>%
  mutate(percent = str_remove(percent, "%")) %>%
  arrange(id) %>%
  unite(formant_id, formant, id, sep = "_", remove = FALSE) %>%
  print()

# A tibble: 520 × 7
   formant_id    id vowel word   formant percent    hz
   <chr>      <int> <chr> <chr>  <chr>   <chr>   <dbl>
 1 F1_15         15 AY    flight F1      20       524.
 2 F2_15         15 AY    flight F2      20      1109.
 3 F1_15         15 AY    flight F1      35       535.
 4 F2_15         15 AY    flight F2      35      1174 
 5 F1_15         15 AY    flight F1      50       511.
 6 F2_15         15 AY    flight F2      50      1355.
 7 F1_15         15 AY    flight F1      65       444.
 8 F2_15         15 AY    flight F2      65      1550.
 9 F1_15         15 AY    flight F1      80       386.
10 F2_15         15 AY    flight F2      80      1655.
# ℹ 510 more rows
…
my_vowel_medians_very_tall <- my_vowels %>%
  
  # Take the median of each vowel at each timepoint
  summarize(across(starts_with("F"), median, na.rm = TRUE), .by = vowel) %>%
  
  # Convert it into a "very tall" format
  pivot_longer(cols = starts_with("F"), names_to = "formant_percent", values_to = "hz") %>%
  separate_wider_delim(formant_percent, delim = "@", names = c("formant", "percent")) %>%
  mutate(percent = str_remove(percent, "%")) %>%
  
  # Create the formant id column
  unite(formant_id, formant, vowel, sep = "_", remove = FALSE) %>%
  print()

# A tibble: 140 × 5
   formant_id vowel formant percent    hz
   <chr>      <chr> <chr>   <chr>   <dbl>
 1 F1_AW      AW    F1      20       514.
 2 F2_AW      AW    F2      20      1322.
 3 F1_AW      AW    F1      35       622.
 4 F2_AW      AW    F2      35      1224.
 5 F1_AW      AW    F1      50       605.
 6 F2_AW      AW    F2      50      1179.
 7 F1_AW      AW    F1      65       533.
 8 F2_AW      AW    F2      65      1155 
 9 F1_AW      AW    F1      80       461.
10 F2_AW      AW    F2      80      1181.
# ℹ 130 more rows
…
