Introduction to Tidyverse – Joey Stanley
…
I’ve truncated the output to save space, but on your screen you’ll see that this displays the entire contents of the dataframe. When we print the tibble version, it’s a lot shorter.

menu

# A tibble: 260 × 6
   Category  Item                                       Oz Calories   Fat Sugars
   <chr>     <chr>                                   <dbl>    <dbl> <dbl>  <dbl>
 1 Breakfast Egg McMuffin                              4.8      300    13      3
 2 Breakfast Egg White Delight                         4.8      250     8      3
 3 Breakfast Sausage McMuffin                          3.9      370    23      2
 4 Breakfast Sausage McMuffin with Egg                 5.7      450    28      2
 5 Breakfast Sausage McMuffin with Egg Whites          5.7      400    23      2
 6 Breakfast Steak & Egg McMuffin                      6.5      430    23      3
 7 Breakfast Bacon, Egg & Cheese Biscuit (Regular B…   5.3      460    26      3
 8 Breakfast Bacon, Egg & Cheese Biscuit (Large Bis…   5.8      520    30      4
 9 Breakfast Bacon, Egg & Cheese Biscuit with Egg W…   5.4      410    20      3
10 Breakfast Bacon, Egg & Cheese Biscuit with Egg W…   5.9      470    25      4
# ℹ 250 more rows
…
[1] 2.628

What the pipe does is it takes whatever is on the left and makes it the first argument to whatever is on the right. For many functions, that first argument is the data that the functions works with. This is handy because it makes the dataset standout visually in the code, rather than it being buried deep within somewhere. This is especially evident when we have to nest multiple functions together or when there are arguments to the functions. The pipe separates all these out in a way that makes it clear what everything is doing and which arguments go with which function.

When you read the code, you can think of the pipe as “and then…”. So in the last example, you might read it as “take this list of values, and then find it’s mean (after removing NAs), and then round it (to three decimal places).”

The pipe is super handy for pretty much all tidyverse stuff. So for example, you could rewrite chunk of code above that used the select function as this:

menu %>%
    select(Item, Category, Oz, Sugars, Calories, Fat)

# A tibble: 260 × 6
   Item                     Category     Oz Sugars Calories   Fat
   <chr>                    <chr>     <dbl>  <dbl>    <dbl> <dbl>
 1 Egg McMuffin             Breakfast   4.8      3      300    13
 2 Egg White Delight        Breakfast   4.8      3      250     8
 3 Sausage McMuffin         Breakfast   3.9      2      370    23
 4 Sausage McMuffin with Eg Breakfast   5.7      2      450    28
 5 Sausage McMuffin with Eg Breakfast   5.7      2      400    23
 6 Steak & Egg McMuffin     Breakfast   6.5      3      430    23
 7 Bacon, Egg & Cheese Bisc Breakfast   5.3      3      460    26
 8 Bacon, Egg & Cheese Bisc Breakfast   5.8      4      520    30
 9 Bacon, Egg & Cheese Bisc Breakfast   5.4      3      410    20
10 Bacon, Egg & Cheese Bisc Breakfast   5.9      4      470    25
# ℹ 250 more rows

This makes it even clearer because the only thing within the select parentheses are the column names themselves. In fact, because the pipe allows you to stack functions, you could even read in the data and then reorder it all in one block. The following snippet reads in data, reorders it, prints it out, and saves the result into the menu object.

menu <- read_csv("http://joeystanley.com/data/menu.csv") %>%
    select(Item, Category, Oz, Sugars, Calories, Fat) %>%
    print()

# A tibble: 260 × 6
   Item                     Category     Oz Sugars Calories   Fat
   <chr>                    <chr>     <dbl>  <dbl>    <dbl> <dbl>
 1 Egg McMuffin             Breakfast   4.8      3      300    13
 2 Egg White Delight        Breakfast   4.8      3      250     8
 3 Sausage McMuffin         Breakfast   3.9      2      370    23
 4 Sausage McMuffin with Eg Breakfast   5.7      2      450    28
 5 Sausage McMuffin with Eg Breakfast   5.7      2      400    23
 6 Steak & Egg McMuffin     Breakfast   6.5      3      430    23
 7 Bacon, Egg & Cheese Bisc Breakfast   5.3      3      460    26
 8 Bacon, Egg & Cheese Bisc Breakfast   5.8      4      520    30
 9 Bacon, Egg & Cheese Bisc Breakfast   5.4      3      410    20
10 Bacon, Egg & Cheese Bisc Breakfast   5.9      4      470    25
# ℹ 250 more rows
…
Being able to do a whole bunch of stuff at once like this is really nice also because then you don’t have to keep track of multiple versions of the same data. You don’t need a menu and a menu_reordered or a menu_clean object: you can just do it all at once and skip the intermediate steps. Pretty handy. I would highly recommend getting used to the pipe because it will save you a lot of hassle.

Removing columns

Sometimes the data you read in has too many columns and you just want to get rid of them to make things easier. In base R, the way I learned how to remove a column was to set it equal to null:

data$bad_column <- NULL

That was fine if it was a one-off thing, but if there were many of them, it was kind of annoying to do. In tidyverse, you can actually also use the select function to do this. Let’s say we read in the menu data, but we don’t need to worry about the Oz column. We can easy remove it by putting a minus sign before it in select:

menu %>%
    select(-Oz) %>%
    print(n = 5)

# A tibble: 260 × 5
  Item                     Category  Sugars Calories   Fat
  <chr>                    <chr>      <dbl>    <dbl> <dbl>
1 Egg McMuffin             Breakfast      3      300    13
2 Egg White Delight        Breakfast      3      250     8
3 Sausage McMuffin         Breakfast      2      370    23
4 Sausage McMuffin with Eg Breakfast      2      450    28
5 Sausage McMuffin with Eg Breakfast      2      400    23
# ℹ 255 more rows

Alternatively, we can just list the columns we want to keep, and select will drop the rest:

menu %>%
    select(Item, Category, Sugars, Calories, Fat) %>%
    print(n = 5)

# A tibble: 260 × 5
  Item                     Category  Sugars Calories   Fat
  <chr>                    <chr>      <dbl>    <dbl> <dbl>
1 Egg McMuffin             Breakfast      3      300    13
2 Egg White Delight        Breakfast      3      250     8
3 Sausage McMuffin         Breakfast      2      370    23
4 Sausage McMuffin with Eg Breakfast      2      450    28
5 Sausage McMuffin with Eg Breakfast      2      400    23
# ℹ 255 more rows

In fact, you can even just reorder things if you need, and the ones you don’t include will be silently dropped.

menu %>%
    select(Fat, Calories, Item) %>%
    print(n = 5)

# A tibble: 260 × 3
    Fat Calories Item                    
  <dbl>    <dbl> <chr>                   
1    13      300 Egg McMuffin            
2     8      250 Egg White Delight       
3    23      370 Sausage McMuffin        
4    28      450 Sausage McMuffin with Eg
5    23      400 Sausage McMuffin with Eg
# ℹ 255 more rows
…
Additional select tricks

If you have only a few columns, it’s not too big of a deal to type them all out. But if you have many, it can get tedious, especially if you only need to make a couple changes. Fortunately, select has a way to specify multiple columns at once, analgous with how some R syntax works. In R, you can use a colon : to specify a range of things.

c(1, 2, 3, 10:20)

 [1]  1  2  3 10 11 12 13 14 15 16 17 18 19 20

You can do a similar thing in select. If you want to include many adjacent columns, just use a colon between them:

menu %>%
    select(Item, Oz:Fat)

# A tibble: 260 × 5
   Item                        Oz Sugars Calories   Fat
   <chr>                    <dbl>  <dbl>    <dbl> <dbl>
 1 Egg McMuffin               4.8      3      300    13
 2 Egg White Delight          4.8      3      250     8
 3 Sausage McMuffin           3.9      2      370    23
 4 Sausage McMuffin with Eg   5.7      2      450    28
 5 Sausage McMuffin with Eg   5.7      2      400    23
 6 Steak & Egg McMuffin       6.5      3      430    23
 7 Bacon, Egg & Cheese Bisc   5.3      3      460    26
 8 Bacon, Egg & Cheese Bisc   5.8      4      520    30
 9 Bacon, Egg & Cheese Bisc   5.4      3      410    20
10 Bacon, Egg & Cheese Bisc   5.9      4      470    25
# ℹ 250 more rows

As mentioned above, one downside of select is that if you forget to specify a column in select, it’ll silently disappear and you won’t know where it went until you do some further digging. Using the colon solves this problem to some extent because it’ll capture everything between those two columns, whether you meant to or not. You can also use the everything() function to select everything that you haven’t already done yet. This makes sure you don’t miss any:

menu %>%
    select(Item, everything())

# A tibble: 260 × 6
   Item                     Category     Oz Sugars Calories   Fat
   <chr>                    <chr>     <dbl>  <dbl>    <dbl> <dbl>
 1 Egg McMuffin             Breakfast   4.8      3      300    13
 2 Egg White Delight        Breakfast   4.8      3      250     8
 3 Sausage McMuffin         Breakfast   3.9      2      370    23
 4 Sausage McMuffin with Eg Breakfast   5.7      2      450    28
 5 Sausage McMuffin with Eg Breakfast   5.7      2      400    23
 6 Steak & Egg McMuffin     Breakfast   6.5      3      430    23
 7 Bacon, Egg & Cheese Bisc Breakfast   5.3      3      460    26
 8 Bacon, Egg & Cheese Bisc Breakfast   5.8      4      520    30
 9 Bacon, Egg & Cheese Bisc Breakfast   5.4      3      410    20
10 Bacon, Egg & Cheese Bisc Breakfast   5.9      4      470    25
# ℹ 250 more rows
…
           # ...and put them in order of frequency.
           mfr = fct_infreq(mfr)) %>%
    
    # Print it out.
    print()

# A tibble: 75 × 13
   name      mfr   type  shelf weight  cups rating calories sugars protein   fat
   <chr>     <fct> <fct> <dbl>  <dbl> <dbl>  <dbl>    <dbl>  <dbl>   <dbl> <dbl>
 1 100% Bran Nabi… C         3   1     0.33   68.4       70      6       4     1
 2 100% Nat… Quak… C         3   1     1      34.0      120      8       3     5
 3 All-Bran  Kell… C         3   1     0.33   59.4       70      5       4     1
 4 All-Bran… Kell… C         3   1     0.5    93.7       50      0       4     0
 5 Almond D… Rals… C         3   1     0.75   34.4      110      8       2     2
 6 Apple Ci… Gene… C         1   1     0.75   29.5      110     10       2     2
 7 Apple Ja… Kell… C         2   1     1      33.2      110     14       2     0
 8 Basic 4   Gene… C         3   1.33  0.75   37.0      130      8       3     2
 9 Bran Chex Rals… C         1   1     0.67   49.1       90      6       2     1
10 Bran Fla… Post  C         3   1     0.67   53.3       90      5       3     0
# ℹ 65 more rows
# ℹ 2 more variables: sodium <dbl>, fiber <dbl>
…
<=: “less than or equal to”

>: “greater than”

>=: “greater than or equal to”

!=: “not equal to”

So with this, we can use the true/false statement type == "C" or type != "H" and it’ll filter everything out:

cereal %>%
    filter(type != "H") %>%
    print(n = 5)

# A tibble: 74 × 13
  name       mfr   type  shelf weight  cups rating calories sugars protein   fat
  <chr>      <fct> <fct> <dbl>  <dbl> <dbl>  <dbl>    <dbl>  <dbl>   <dbl> <dbl>
1 100% Bran  Nabi… C         3      1  0.33   68.4       70      6       4     1
2 100% Natu… Quak… C         3      1  1      34.0      120      8       3     5
3 All-Bran   Kell… C         3      1  0.33   59.4       70      5       4     1
4 All-Bran … Kell… C         3      1  0.5    93.7       50      0       4     0
5 Almond De… Rals… C         3      1  0.75   34.4      110      8       2     2
# ℹ 69 more rows
# ℹ 2 more variables: sodium <dbl>, fiber <dbl>

Poof! That hot cereal is gone, and we’re left with the 74 remaining ones.

Just as we can put multiple mutate functions combined into one, we can do the same thing with filter. Let’s say we want to get rid of the hot cereal and only keep anything with less than 7 grams of sugar per serving. All we need to do is separate them with a comma:

cereal %>%
    filter(type != "H", sugars < 7) %>%
    print()

# A tibble: 35 × 13
   name      mfr   type  shelf weight  cups rating calories sugars protein   fat
   <chr>     <fct> <fct> <dbl>  <dbl> <dbl>  <dbl>    <dbl>  <dbl>   <dbl> <dbl>
 1 100% Bran Nabi… C         3      1  0.33   68.4       70      6       4     1
 2 All-Bran  Kell… C         3      1  0.33   59.4       70      5       4     1
 3 All-Bran… Kell… C         3      1  0.5    93.7       50      0       4     0
 4 Bran Chex Rals… C         1      1  0.67   49.1       90      6       2     1
 5 Bran Fla… Post  C         3      1  0.67   53.3       90      5       3     0
 6 Cheerios  Gene… C         1      1  1.25   50.8      110      1       6     2
 7 Corn Chex Rals… C         1      1  1      41.4      110      3       2     0
 8 Corn Fla… Kell… C         1      1  1      45.9      100      2       2     0
 9 Crispix   Kell… C         3      1  1      46.9      110      3       2     0
10 Double C… Rals… C         3      1  0.75   44.3      100      5       2     0
# ℹ 25 more rows
# ℹ 2 more variables: sodium <dbl>, fiber <dbl>
…
That leaves just 16 of them. What if you wanted to do the opposite, and look at cereals at the extremes, say with either 0 or 14 or more grams? Here, no cereal will satisfy both constraints since they are mutually exclusive. But some will satisfy one or the other, so we need to tell filter to do an “or”. This is done using the vertical bar | (on my keyboard is the key right above the “enter” key, when holding “shift”) instead of a comma. When R returns rows that satisfy either the left or the right filter.

cereal %>%
    filter(type != "H", sugars == 0 | sugars >= 14) %>%
    print(n = 5)

# A tibble: 11 × 13
  name       mfr   type  shelf weight  cups rating calories sugars protein   fat
  <chr>      <fct> <fct> <dbl>  <dbl> <dbl>  <dbl>    <dbl>  <dbl>   <dbl> <dbl>
1 All-Bran … Kell… C         3   1     0.5    93.7       50      0       4     0
2 Apple Jac… Kell… C         2   1     1      33.2      110     14       2     0
3 Golden Cr… Post  C         1   1     0.88   35.3      100     15       2     0
4 Post Nat.… Post  C         3   1.33  0.67   37.8      120     14       3     1
5 Puffed Ri… Quak… C         3   0.5   1      60.8       50      0       1     0
# ℹ 6 more rows
# ℹ 2 more variables: sodium <dbl>, fiber <dbl>

Note that here, the type != "H" gets evaluated separately. So this filter returns rows that are not hot cereals and have either 0 or 14 or more grams of sugar.

So what if we wanted to show just the three smallest manufacturers of cereal? You might be tempted to do something like this, stringing together a couple “or” statements:

cereal %>%
    filter(mfr == "Nabisco" | mfr == "Quaker Oats" | mfr == "Ralston Purina") %>%
    print(n = 5)

# A tibble: 21 × 13
  name       mfr   type  shelf weight  cups rating calories sugars protein   fat
  <chr>      <fct> <fct> <dbl>  <dbl> <dbl>  <dbl>    <dbl>  <dbl>   <dbl> <dbl>
1 100% Bran  Nabi… C         3      1  0.33   68.4       70      6       4     1
2 100% Natu… Quak… C         3      1  1      34.0      120      8       3     5
3 Almond De… Rals… C         3      1  0.75   34.4      110      8       2     2
4 Bran Chex  Rals… C         1      1  0.67   49.1       90      6       2     1
5 Cap'n'Cru… Quak… C         2      1  0.75   18.0      120     12       1     2
# ℹ 16 more rows
# ℹ 2 more variables: sodium <dbl>, fiber <dbl>

This works just fine, but it seems a but cumbersome, especially if the list of factors you want to show is long. We can actually use a different operator, the fancy looking %in%, which will check whether something exists inside of a list. On the left we put the column we want to filter by and on the right we supply a list of strings we want it to look through.

cereal %>%
    filter(mfr %in% c("Nabisco", "Quaker Oats", "Ralston Purina")) %>%
    print(n = 5)

# A tibble: 21 × 13
  name       mfr   type  shelf weight  cups rating calories sugars protein   fat
  <chr>      <fct> <fct> <dbl>  <dbl> <dbl>  <dbl>    <dbl>  <dbl>   <dbl> <dbl>
1 100% Bran  Nabi… C         3      1  0.33   68.4       70      6       4     1
2 100% Natu… Quak… C         3      1  1      34.0      120      8       3     5
3 Almond De… Rals… C         3      1  0.75   34.4      110      8       2     2
4 Bran Chex  Rals… C         1      1  0.67   49.1       90      6       2     1
5 Cap'n'Cru… Quak… C         2      1  0.75   18.0      120     12       1     2
# ℹ 16 more rows
# ℹ 2 more variables: sodium <dbl>, fiber <dbl>

Incidentally, you can reverse this, and just show rows where the manufacturer is not one of those three by simply putting an exclamation point before the column name:

cereal %>%
    filter(!mfr %in% c("Nabisco", "Quaker Oats", "Ralston Purina")) %>%
    print(n = 5)

# A tibble: 54 × 13
  name       mfr   type  shelf weight  cups rating calories sugars protein   fat
  <chr>      <fct> <fct> <dbl>  <dbl> <dbl>  <dbl>    <dbl>  <dbl>   <dbl> <dbl>
1 All-Bran   Kell… C         3   1     0.33   59.4       70      5       4     1
2 All-Bran … Kell… C         3   1     0.5    93.7       50      0       4     0
3 Apple Cin… Gene… C         1   1     0.75   29.5      110     10       2     2
4 Apple Jac… Kell… C         2   1     1      33.2      110     14       2     0
5 Basic 4    Gene… C         3   1.33  0.75   37.0      130      8       3     2
# ℹ 49 more rows
# ℹ 2 more variables: sodium <dbl>, fiber <dbl>
…
The final thing I’d like to show for this workshop is how to rename columns. There are lots of reasons for why you might want to do this. In the ggplot2 workshop, we saw how to do this on the fly within a block of ggplot code, but sometimes you want to make it a permanent change to your data. Using the tools you have now, you might be tempted to simply create a new column that’s a copy of the old one.

cereal %>%
    mutate(manufacturer = mfr) %>%
    print(n = 5)

But the problem is you end up with two identical columns. Okay fine, we can then remove the old one:

cereal %>%
    mutate(manufacturer = mfr) %>%
    select(-mfr) %>%
    print(n = 5)

# A tibble: 75 × 13
  name      type  shelf weight  cups rating calories sugars protein   fat sodium
  <chr>     <fct> <dbl>  <dbl> <dbl>  <dbl>    <dbl>  <dbl>   <dbl> <dbl>  <dbl>
1 100% Bran C         3      1  0.33   68.4       70      6       4     1    130
2 100% Nat… C         3      1  1      34.0      120      8       3     5     15
3 All-Bran  C         3      1  0.33   59.4       70      5       4     1    260
4 All-Bran… C         3      1  0.5    93.7       50      0       4     0    140
5 Almond D… C         3      1  0.75   34.4      110      8       2     2    200
# ℹ 70 more rows
# ℹ 2 more variables: fiber <dbl>, manufacturer <fct>

Okay, but now the columns are out of order. You’ll have to then put them back in the correct order:

cereal %>%
    mutate(manufacturer = mfr) %>%
    select(name, manufacturer, everything(), -mfr) %>%
    print(n = 5)

# A tibble: 75 × 13
  name      manufacturer type  shelf weight  cups rating calories sugars protein
  <chr>     <fct>        <fct> <dbl>  <dbl> <dbl>  <dbl>    <dbl>  <dbl>   <dbl>
1 100% Bran Nabisco      C         3      1  0.33   68.4       70      6       4
2 100% Nat… Quaker Oats  C         3      1  1      34.0      120      8       3
3 All-Bran  Kellogg's    C         3      1  0.33   59.4       70      5       4
4 All-Bran… Kellogg's    C         3      1  0.5    93.7       50      0       4
5 Almond D… Ralston Pur… C         3      1  0.75   34.4      110      8       2
# ℹ 70 more rows
# ℹ 3 more variables: fat <dbl>, sodium <dbl>, fiber <dbl>
…
