Joey Stanley - 3D Vowel Plots with Rayshader
…
So now, the wave object is very long and has one row for each sample. Okay, that means I’m getting close. I’ll take what I’ve got, convert it into a tibble, add the sample number, and then add a time variable to it, based on the sampling rate in the original audio.

wav_df <- wave %>%
    as_tibble() %>%
    rename(hz = V1) %>%
    rowid_to_column("sample") %>%
    mutate(t = sample / boy_wav@samp.rate) %>%
    print()

## # A tibble: 36,874 x 3
##    sample    hz         t
##     <int> <int>     <dbl>
##  1      1   127 0.0000227
##  2      2   125 0.0000454
##  3      3   123 0.0000680
##  4      4   131 0.0000907
##  5      5   134 0.000113 
##  6      6   131 0.000136 
##  7      7   135 0.000159 
##  8      8   134 0.000181 
##  9      9   142 0.000204 
## 10     10   140 0.000227 
## # … with 36,864 more rows
…
With this modification of the function, I can now convert my data from waveform format to spectrogram format. What you se here is a giant spreadsheet where each row is a time point, each column is a frequency, and the cells contain amplitude (or something) at that time for that frequency.

spec <- joey_spec(wav_df$hz) %>%
    as.tibble() %>%
    rowid_to_column("sample") %>%
    print()

## # A tibble: 1,020 x 618
##     sample   `0` `17.9` `35.8` `53.69` `71.59` `89.49` `107.39` `125.28`
##      <int> <dbl>  <dbl>  <dbl>   <dbl>   <dbl>   <dbl>    <dbl>    <dbl>
##  1       1 -80.3  -53.7  -53.5   -53.1   -52.6   -52.1    -51.7    -51.3
##  2       2 -77.9  -42.7  -42.8   -43.0   -43.2   -43.5    -43.9    -44.3
##  3       3 -82.5  -33.3  -33.4   -33.5   -33.6   -33.8    -34.1    -34.4
##  4       4 -71.0  -41.9  -39.6   -37.4   -35.6   -34.1    -32.9    -31.8
##  5       5 -73.0  -27.7  -27.7   -27.6   -27.5   -27.4    -27.3    -27.2
##  6       6 -74.6  -39.4  -39.2   -38.9   -38.5   -38.1    -37.6    -37.0
##  7       7 -88.0  -39.5  -39.5   -39.6   -39.6   -39.7    -39.8    -39.9
##  8       8 -93.7  -33.5  -33.5   -33.6   -33.7   -33.9    -34.0    -34.2
##  9       9 -69.6  -34.5  -34.6   -34.8   -35.0   -35.3    -35.7    -36.0
## 10      10 -83.2  -33.6  -33.6   -33.7   -33.7   -33.7    -33.8    -33.9
## # … with 1,010 more rows, and 609 more variables: [truncated for space]

This isn’t the most useful format, so I’ll do some reshaping with gather and turn it into a very tall spreadsheet with 629,340 rows.

spec_tall <- spec %>%
    gather(hz, value, -sample) %>%
    mutate(hz = as.double(hz)) %>%
    print()

## # A tibble: 629,340 x 3
##     sample    hz value
##      <int> <dbl> <dbl>
##  1       1     0 -80.3
##  2       2     0 -77.9
##  3       3     0 -82.5
##  4       4     0 -71.0
##  5       5     0 -73.0
##  6       6     0 -74.6
##  7       7     0 -88.0
##  8       8     0 -93.7
##  9       9     0 -69.6
## 10      10     0 -83.2
## # … with 629,330 more rows
…
