Joey Stanley - Assigning Pseudonyms in R with the babynames package
…
From here, you can choose a pseudonym that you feel is appropriate for that person. Unfortunately, because race and ethnicity data are not included here, if your speaker is part of a minority group and you would like their pseudonym to reflect their identity that more visibly, these names might not be the most appropriate since White Americans dominate this dataset. In such cases, you might set n to a larger number and scan through to find a more suitable name for your speaker if you want.

Filtering out existing pseudonyms

Okay, so this works really well for when you want to find a single pseudonym. However, a lot of us have studies that include multiple people, perhaps a couple dozen. Large projects have hundreds of names. We’ll get to how to automate this process later, but the first thing we want to watch out for is duplicate names. Michael has been one of the most common male names for decades. If we just went with what the most common names were during our participants’ years of birth, we’d end up with a whole bunch of Michaels.

What we need to do is display the most names that were common for that year—except for the ones that we’ve already used. It’s probably not a good idea to use the same pseudonym within a project. I don’t even like repeating names across projects. So if Michael was used for a speaker in my very first project, I’ll never use that name again. Because I’ve recorded a lot of nineties babies, my latest batch of interviewees are getting some unusual names, so I’ve resorted to using alternative forms, like Mike, which I resisted initially, but have come to accept.
They were from Utah anyway, so it fits.

Anyway, all this is to say that you’ll need a way to keep track of what names you’ve used. Probably the most straightforward way to do this is to use whatever metadata spreadsheet you have for your project. Once you’ve chosen a name for one person, save it to your spreadsheet. When you want to choose a name for someone else, reread the spreadsheet again, pull out the pseudonym column, and exclude names that are in that list. Here’s a sample metadata spreadsheet I’ve created:

used_names <- read_csv("sample_metadata.csv", show_col_types = FALSE) %>%
    print()

# A tibble: 100 × 3
   name     sex     yob
   <chr>    <chr> <dbl>
 1 Michelle F      1998
 2 Natalie  F      1993
 3 Rebecca  F      1998
 4 Mary     F      2000
 5 Ashley   F      1999
 6 Maria    F      1997
 7 Samuel   M      1991
 8 Victoria F      1997
 9 Shelby   F      1996
10 Rachel   F      1990
# ℹ 90 more rows
…
So, I’ll write a for loop that assigns a new name for every row of my 100-row dataframe of generated data. The first two arguments of assign_nym are the same as we’ve seen before (I’ve added the argument names just to be clear what I’m doing). But the third one is where I make sure it doesn’t assign two names twice. I’ve included the argument ignore = to_be_named$name[1:i] because that’s the list of names that have already been assigned in this loop. When that gets sent to assign_nym, it becomes the ignore argument (replacing the default "Joey"), and then when the function is filtering out names, it’ll make sure not to let those go through.

for (i in 1:nrow(to_be_named)) {
    to_be_named$name[[i]] <- assign_nym(yob    = to_be_named$yob[[i]], 
                                        sx     = to_be_named$sex[[i]], 
                                        ignore = to_be_named$name[1:i])
}

The result is that to_be_named now has the name column populated with new, unique pseudonyms that are appropriate for their age and sex.

to_be_named

# A tibble: 100 × 3
     yob sex   name  
   <int> <chr> <chr> 
 1  1999 F     Emma  
 2  1991 M     Travis
 3  1999 F     Sydney
 4  1990 M     Jesse 
 5  1990 F     Erica 
 6  1993 M     Alex  
 7  1994 F     Andrea
 8  1994 M     Juan  
 9  1995 F     Brooke
10  1998 M     Noah  
# ℹ 90 more rows
…
        rowid_to_column("rank") %>%
        filter(!name %in% used_names$name,
               !name %in% ignored_names, 
               !name %in% ignore) %>% 
        pull(name) %>%
        first()
}
for (i in 1:nrow(to_be_named)) {
    to_be_named$name[[i]] <- assign_nym(to_be_named$yob[[i]], 
                                        to_be_named$sex[[i]], 
                                        to_be_named$name[1:i])
}
to_be_named

# A tibble: 100 × 3
     yob sex   name   
   <int> <chr> <chr>  
 1  1999 F     Sydney 
 2  1991 M     Jesse  
 3  1999 F     Emma   
 4  1990 M     Travis 
 5  1990 F     Amy    
 6  1993 M     Juan   
 7  1994 F     Marissa
 8  1994 M     Alex   
 9  1995 F     Andrea 
10  1998 M     Hunter 
# ℹ 90 more rows
…
