Joey Stanleyassistant professor, linguistics - A tutorial in measuring vowel overlap in R
…
Update (November 23, 2021) Sprinkled throughout this blog post are updates based on some recent research that Betsy Sneller and I have done. Please see the summary our ASA2021 poster and our JASA paper for more information.

Data prep

As always, I’ll be using tidyverse code to read in, process, and plot the data. Remember that this is a bit of an umbrella package that includes dplyr, tidyr, and ggplot2, which you might be more familiar with.

library(tidyverse)

And I’ll use the same dataset that I’ve used in other tutorials. It’s a bunch of formant measurements of me reading about 300 sentences while sitting at my kitchen counter. The audio was automatically transcribed and processed with DARLA. As part of the process, it was processed with FAVE-extract, so the output file is just like what yours might look like if you also used FAVE. Hopefully this makes this tutorial the most translatable to your own data.

my_vowels_raw <- read_csv("../../data/joey.csv", show_col_types = FALSE) %>%
  print()

# A tibble: 3,504 × 43
   name       sex   vowel stress pre_word word    fol_word    F1    F2 F3    
   <chr>      <chr> <chr>  <dbl> <chr>    <chr>   <chr>    <dbl> <dbl> <chr> 
 1 LA000-Joey M     AY         1 THE      THAI    SP        826  1520. 2529.5
 2 LA000-Joey M     AY         1 SP       TIMER   SP        581. 1306  1835.6
 3 LA000-Joey M     ER         0 SP       TIMER   SP        484. 1449. 1644.6
 4 LA000-Joey M     IY         1 SP       HERE    WE'LL     235. 2044. 3106.3
 5 LA000-Joey M     IY         1 HERE     WE'LL   SP        302. 1974. 2549.5
 6 LA000-Joey M     AA         1 SP       BARRING INJURY    573.  925. 2296.1
 7 LA000-Joey M     IH         1 BARRING  INJURY  OR        362. 2262. 2591.2
 8 LA000-Joey M     IY         0 BARRING  INJURY  OR        258. 2222. 3197.5
 9 LA000-Joey M     ER         0 INJURY   OR      A         370.  872. 1654.5
10 LA000-Joey M     EY         1 A        CHANGE  OF        428. 2210. 2531.2
# ℹ 3,494 more rows
# ℹ 33 more variables: F1_LobanovNormed_unscaled <dbl>,
#   F2_LobanovNormed_unscaled <dbl>, B1 <dbl>, B2 <dbl>, B3 <chr>, t <dbl>,
#   beg <dbl>, end <dbl>, dur <dbl>, plt_vclass <chr>, plt_manner <chr>,
#   plt_place <chr>, plt_voice <chr>, plt_preseg <chr>, plt_folseq <chr>,
#   pre_seg <chr>, fol_seg <chr>, context <chr>, vowel_index <dbl>,
#   pre_word_trans <chr>, word_trans <chr>, fol_word_trans <chr>, …
…
