Curved Text in ggplot2 with geomtextpath – Joey Stanley
…
Warning

When I originally wrote this post in 2021, I was using an earlier version of the package. In 2023 when I transferred to my new website, I reran it with a later version and some of the code broke. I’ve update the code now, but please be aware that the prose, which is based on the earlier version, may not match the plots, which are created with the latest release.

Data prep

I’ll use some trajectory data I have in my joeysvowels package. I’ll mostly work with data from the coronals object. This contains a bunch of formant trajectory data from me reading all my vowels flanked by a bunch of combinations of coronal consonants (they were mostly nonce words like /sneɪz/, /nɔdz/, and /dʊz/).

coronals

# A tibble: 14,446 × 13
   vowel_id start   end     t percent    F1    F2    F3    F4 word  pre   vowel
      <dbl> <dbl> <dbl> <dbl>   <dbl> <dbl> <dbl> <dbl> <dbl> <chr> <chr> <fct>
 1        1  2.06  2.41  2.06       0  387. 1701. 2629. 3164. snoʊz sn    GOAT 
 2        1  2.06  2.41  2.07       5  483. 1591. 2454. 3310. snoʊz sn    GOAT 
 3        1  2.06  2.41  2.09      10  525. 1466. 2526. 3343. snoʊz sn    GOAT 
 4        1  2.06  2.41  2.13      20  530. 1297  2616. 3330  snoʊz sn    GOAT 
 5        1  2.06  2.41  2.14      25  497. 1223. 2562. 3280. snoʊz sn    GOAT 
 6        1  2.06  2.41  2.16      30  461. 1172. 2559. 3252  snoʊz sn    GOAT 
 7        1  2.06  2.41  2.18      35  414. 1120  2625. 3247. snoʊz sn    GOAT 
 8        1  2.06  2.41  2.20      40  423  1072. 2655. 3175. snoʊz sn    GOAT 
 9        1  2.06  2.41  2.22      45  396. 1074  2623. 3248. snoʊz sn    GOAT 
10        1  2.06  2.41  2.23      50  368. 1018. 2602. 3168. snoʊz sn    GOAT 
# ℹ 14,436 more rows
# ℹ 1 more variable: fol <chr>

There’s a lot of data and I don’t need to plot all trajectories of all observations, so I’ll boil them down to one trajectory per vowel by taking the median per timepoint per vowel. Also, because these vowels are flanked by coronals, the edges of the vowel trajectories, particularly the second halves, all converged towards the high front portion of the vowel space, so I’ll just get a middle portion of the trajectory.

avg_trajs <- coronals %>%
  group_by(vowel, percent) %>%
  summarize(across(c(F1, F2), median)) %>%
  filter(percent >= 10, percent <= 60) %>%
  print()

# A tibble: 143 × 4
# Groups:   vowel [13]
   vowel percent    F1    F2
   <fct>   <dbl> <dbl> <dbl>
 1 LOT        10  646. 1279.
 2 LOT        15  660. 1240.
 3 LOT        20  664. 1170.
 4 LOT        25  658. 1175.
 5 LOT        30  645  1141.
 6 LOT        35  640. 1136.
 7 LOT        40  631. 1154.
 8 LOT        45  634. 1168 
 9 LOT        50  629. 1167.
10 LOT        55  632. 1178.
# ℹ 133 more rows
…
  # Group for the GAMs
  group_by(vowel, formant) %>%
  nest() %>%
  # Fit the GAM and extract predicted measurements
  mutate(mdl = map(data, ~bam(hz ~ percent + s(percent), data = .)),
         preds = map(mdl, ~get_predictions(., cond = list(percent = 10:60), print.summary = FALSE))) %>%
  # Post-processing
  select(-data, -mdl) %>%
  unnest(preds) %>%
  rename(hz = fit) %>%
  select(-CI) %>%
  pivot_wider(names_from = formant, values_from = hz) %>%
  print()

# A tibble: 663 × 4
# Groups:   vowel [13]
   vowel percent    F1    F2
   <fct>   <int> <dbl> <dbl>
 1 GOAT       10  449. 1232.
 2 GOAT       11  447. 1218.
 3 GOAT       12  445. 1204.
 4 GOAT       13  444. 1189.
 5 GOAT       14  442. 1176.
 6 GOAT       15  440. 1162.
 7 GOAT       16  438. 1149.
 8 GOAT       17  436. 1136.
 9 GOAT       18  434. 1123.
10 GOAT       19  432. 1111.
# ℹ 653 more rows
…
