Joey Stanley - Visualizing Jonathan Dowse’s Vowels
…
This is more information than I need, especially since Dowse tries to say the vowels as monophthongally as he can. But we can take a look at the trajectories in just a sec. 

So, I want to plot the midpoints of all vowels at once. Since each is stored in a separate spreadsheet, I’ll use Sys.glob to get the paths to all those spreadsheets and map the read_csv function onto all of those paths. Since the vowel quality is stored in the filename itself (i.e., “high_front.csv”), I’ll strip away the path and the extension to leave just that filename and use it as the name of the vowel itself. Finally, I’ll take all those spreadsheets and combine them into one big one with bind_rows and unnest.

vowels_raw <- tibble(vowel = Sys.glob("./csvs/*.csv")) %>%
  mutate(data = map(vowel, read_csv, show_col_types = FALSE),
         vowel = str_remove_all(vowel, "./csvs/"),
         vowel = str_remove_all(vowel, ".csv")) %>%
  bind_rows() %>%
  unnest(data) %>%
  print()

# A tibble: 14,772 × 13
   vowel        time    f1    b1    f2    b2    f3    b3   f1p   f2p   f3p    f0
   <chr>       <dbl> <dbl> <dbl> <dbl> <dbl> <dbl> <dbl> <dbl> <dbl> <dbl> <dbl>
 1 high-mid_… 0.0252  478.  90    918. 122.  2683.  324   423   863. 2696.  107 
 2 high-mid_… 0.0272  476.  77.7  917. 100.  2689.  303.  423.  863. 2696.  107.
 3 high-mid_… 0.0292  470.  71    914.  82.7 2695.  291.  424.  863. 2697.  107.
 4 high-mid_… 0.0312  460.  72.9  908.  77.5 2692.  308.  424.  863. 2698.  107.
 5 high-mid_… 0.0332  451.  78.9  901.  86.2 2680.  337.  425   864. 2700.  107.
 6 high-mid_… 0.0352  450   79    895.  96.9 2675.  336.  426.  864. 2701.  106.
 7 high-mid_… 0.0372  453.  74.6  891.  97.4 2685.  308.  427.  865. 2703.  106.
 8 high-mid_… 0.0392  452.  73.7  887.  92.3 2703.  284.  428.  865. 2705.  106.
 9 high-mid_… 0.0412  448.  81.5  880   94.6 2723.  280.  429.  866  2708.  106.
10 high-mid_… 0.0432  446.  89.6  873. 104.  2740.  284.  431.  867. 2710.  106 
# ℹ 14,762 more rows
# ℹ 1 more variable: intensity <dbl>
…
  # Step 3: add IPA
  arrange(height, backness, rounded) %>%
    mutate(ipa = c("i", "y", "ï", "ÿ", "ɨ", "u̶", "ɯ̈", "ü", "ɯ", "u",
                   "i̞", "y̙̞", "ɪ", "ʏ", "ɪ̈", "ʊ̈", "ɯ̽", "ʊ", "ɯ̞", "u̞",
                   "e", "ø", "ë", "ø̈", "ɘ", "ɵ", "ɤ̈", "ö", "ɤ", "o",
                   "e̞", "ø̞", "ë̞", "ø̞̈", "ə", "ɵ̘", "ɤ̞̈", "ö̞", "ɤ̞", "o̞",
                   "ɛ", "œ", "ɛ̈", "œ̈", "ɜ", "ɞ", "ʌ̈", "ɔ̈", "ʌ", "ɔ",
                   "æ", "œ̞", "æ̈", "ɶ̽", "ɐ", "ɞ̞", "ɑ̽", "ɒ̽", "ʌ̞", "ɔ̞",
                   "a", "ɶ", "ä", "ɶ̈", "ɐ̞", "ɐ̞̹", "ɑ̈", "ɒ̈", "ɑ", "ɒ")) %>%

  print()

# A tibble: 70 × 6
   vowel                   height backness   rounded marked ipa  
   <chr>                   <fct>  <fct>      <lgl>   <lgl>  <chr>
 1 high_front              high   front      FALSE   FALSE  i    
 2 high_front_rounded      high   front      TRUE    TRUE   y    
 3 high_near-front         high   near-front FALSE   FALSE  ï    
 4 high_near-front_rounded high   near-front TRUE    TRUE   ÿ    
 5 high_central            high   central    FALSE   FALSE  ɨ    
 6 high_central_rounded    high   central    TRUE    TRUE   u̶    
 7 high_near-back          high   near-back  FALSE   TRUE   ɯ̈    
 8 high_near-back_rounded  high   near-back  TRUE    FALSE  ü    
 9 high_back               high   back       FALSE   TRUE   ɯ    
10 high_back_rounded       high   back       TRUE    FALSE  u    
# ℹ 60 more rows
…
Okay great. So, that worked for one vowel. Let’s do that for all vowels. The code is the same, except I’m grouping things by vowel. This results in trajs dataframe (for “trajectories”). We’ll look at that in just a second.

trajs <- vowels_raw %>%
  select(vowel, time, f1, f2, f3) %>%
  mutate(time_diff = time - min(time),
         percent = time_diff / max(time_diff),
         time_cut = kiru(percent,
                         breaks = seq(0, 1, 0.1),
                         labels = 1:10),
         .by = vowel) %>%
  summarize(across(c(f1, f2, f3), median), .by = c(vowel, time_cut)) %>%
  print()

# A tibble: 700 × 5
   vowel         time_cut    f1    f2    f3
   <chr>         <fct>    <dbl> <dbl> <dbl>
 1 high-mid_back 1         448.  872. 2745.
 2 high-mid_back 2         431.  835. 2747 
 3 high-mid_back 3         422.  873. 2803.
 4 high-mid_back 4         422.  874  2834.
 5 high-mid_back 5         426.  842. 2789.
 6 high-mid_back 6         416.  844. 2838.
 7 high-mid_back 7         427.  854. 2914.
 8 high-mid_back 8         430.  903. 2874.
 9 high-mid_back 9         404.  966. 3011.
10 high-mid_back 10        967. 1639. 3047 
# ℹ 690 more rows

For now, let’s look at the midpoints. You may have noticed in the high front plot above that the middle 50% or so of the vowel was indeed quite monophthongal with very little formant change. I’ll assume that’s the case for all the vowels. So I’ll take the middle few bins and take the median measurement for each one. That’ll give me a new midpoints dataset.

midpoints <- trajs %>%
  
  # Get the middle few bins and find the median
  filter(time_cut %in% 3:7) %>%
  summarize(across(c(f1, f2, f3), median), .by = vowel) %>%
  
  # Add the vowel metadata back in.
  left_join(vowels_meta, by = "vowel") %>%
  print()

# A tibble: 70 × 9
   vowel                     f1    f2    f3 height backness rounded marked ipa  
   <chr>                  <dbl> <dbl> <dbl> <fct>  <fct>    <lgl>   <lgl>  <chr>
 1 high-mid_back           422.  854. 2834. high-… back     FALSE   TRUE   ɤ    
 2 high-mid_back_rounded   408.  522. 2583. high-… back     TRUE    FALSE  o    
 3 high-mid_central        414. 1670. 2316. high-… central  FALSE   FALSE  ɘ    
 4 high-mid_central_roun…  420.  979. 2322. high-… central  TRUE    TRUE   ɵ    
 5 high-mid_front          416. 2237. 2911. high-… front    FALSE   FALSE  e    
 6 high-mid_front_rounded  346. 2050. 2596. high-… front    TRUE    TRUE   ø    
 7 high-mid_near-back      478. 1189. 2550. high-… near-ba… FALSE   TRUE   ɤ̈    
 8 high-mid_near-back_ro…  413.  728. 2516. high-… near-ba… TRUE    FALSE  ö    
 9 high-mid_near-front     420. 1940  2476. high-… near-fr… FALSE   FALSE  ë    
10 high-mid_near-front_r…  403. 1680. 2219. high-… near-fr… TRUE    TRUE   ø̈    
# ℹ 60 more rows
…
